%YAML 1.1
%TAG !u! tag:unity3d.com,2011:
--- !u!114 &11400000
MonoBehaviour:
  m_ObjectHideFlags: 0
  m_CorrespondingSourceObject: {fileID: 0}
  m_PrefabInstance: {fileID: 0}
  m_PrefabAsset: {fileID: 0}
  m_GameObject: {fileID: 0}
  m_Enabled: 1
  m_EditorHideFlags: 0
  m_Script: {fileID: 11500000, guid: a6b194f808b1af6499c93410e504af42, type: 3}
  m_Name: player_dash_Atlas
  m_EditorClassIdentifier: 
  atlasFile: {fileID: 4900000, guid: d634b2017b3e341829538fc8372f0675, type: 3}
  materials:
  - {fileID: 2100000, guid: ce0cc68ad4c364117b12b0a4ac77bab9, type: 2}
