%YAML 1.1
%TAG !u! tag:unity3d.com,2011:
--- !u!114 &11400000
MonoBehaviour:
  m_ObjectHideFlags: 0
  m_CorrespondingSourceObject: {fileID: 0}
  m_PrefabInstance: {fileID: 0}
  m_PrefabAsset: {fileID: 0}
  m_GameObject: {fileID: 0}
  m_Enabled: 1
  m_EditorHideFlags: 0
  m_Script: {fileID: 11500000, guid: f1b3b4b945939a54ea0b23d3396115fb, type: 3}
  m_Name: circle_enemy_SkeletonData
  m_EditorClassIdentifier: 
  atlasAssets:
  - {fileID: 11400000, guid: 1e12388eb88ba074698c3b6c0387f6c3, type: 2}
  scale: 0.01
  skeletonJSON: {fileID: 4900000, guid: 3a19368fd591c24488fc600d6bbf18af, type: 3}
  skeletonDataModifiers: []
  fromAnimation: []
  toAnimation: []
  duration: []
  defaultMix: 0.2
  controller: {fileID: 0}
