%YAML 1.1
%TAG !u! tag:unity3d.com,2011:
--- !u!114 &11400000
MonoBehaviour:
  m_ObjectHideFlags: 0
  m_CorrespondingSourceObject: {fileID: 0}
  m_PrefabInstance: {fileID: 0}
  m_PrefabAsset: {fileID: 0}
  m_GameObject: {fileID: 0}
  m_Enabled: 1
  m_EditorHideFlags: 0
  m_Script: {fileID: 11500000, guid: 7ce0fdb4e39b5744abf0c061bd2a3e30, type: 3}
  m_Name: Rune_Cross_1
  m_EditorClassIdentifier: 
  id: rune_cross
  points: []
  gesture:
    lines:
    - points:
      - {x: 0.125, y: 1}
      - {x: 0.875, y: 0}
      originalPoints:
      - {x: 482.76935, y: 845.53845}
      - {x: 456.9232, y: 845.53845}
      - {x: 423.6924, y: 841.8461}
      - {x: 390.46164, y: 830.7692}
      - {x: 349.84628, y: 801.2308}
      - {x: 338.76935, y: 786.46155}
      - {x: 320.3078, y: 753.2308}
      - {x: 316.6155, y: 734.7692}
      - {x: 316.6155, y: 712.6154}
      - {x: 320.3078, y: 694.1539}
      - {x: 331.38474, y: 672}
      - {x: 346.15396, y: 657.2308}
      - {x: 364.6155, y: 646.1539}
      - {x: 386.76935, y: 638.7692}
      - {x: 423.6924, y: 635.0769}
      - {x: 460.6155, y: 642.46155}
      - {x: 490.15396, y: 657.2308}
      - {x: 508.6155, y: 679.38464}
      - {x: 523.3847, y: 701.53845}
      - {x: 527.077, y: 731.0769}
      - {x: 527.077, y: 756.9231}
      - {x: 523.3847, y: 779.0769}
      - {x: 512.3078, y: 804.9231}
      - {x: 490.15396, y: 827.0769}
      - {x: 475.38474, y: 838.1539}
      - {x: 460.6155, y: 845.53845}
      - {x: 449.53857, y: 845.53845}
      - {x: 442.15396, y: 845.53845}
      closedLine: 0
    - points:
      - {x: 0.125, y: 0}
      - {x: 0.875, y: 1}
      originalPoints:
      - {x: 482.76935, y: 845.53845}
      - {x: 456.9232, y: 845.53845}
      - {x: 423.6924, y: 841.8461}
      - {x: 390.46164, y: 830.7692}
      - {x: 349.84628, y: 801.2308}
      - {x: 338.76935, y: 786.46155}
      - {x: 320.3078, y: 753.2308}
      - {x: 316.6155, y: 734.7692}
      - {x: 316.6155, y: 712.6154}
      - {x: 320.3078, y: 694.1539}
      - {x: 331.38474, y: 672}
      - {x: 346.15396, y: 657.2308}
      - {x: 364.6155, y: 646.1539}
      - {x: 386.76935, y: 638.7692}
      - {x: 423.6924, y: 635.0769}
      - {x: 460.6155, y: 642.46155}
      - {x: 490.15396, y: 657.2308}
      - {x: 508.6155, y: 679.38464}
      - {x: 523.3847, y: 701.53845}
      - {x: 527.077, y: 731.0769}
      - {x: 527.077, y: 756.9231}
      - {x: 523.3847, y: 779.0769}
      - {x: 512.3078, y: 804.9231}
      - {x: 490.15396, y: 827.0769}
      - {x: 475.38474, y: 838.1539}
      - {x: 460.6155, y: 845.53845}
      - {x: 449.53857, y: 845.53845}
      - {x: 442.15396, y: 845.53845}
      closedLine: 0
    renderedLines: []
  useLinesOrder: 0
  useLinesDirections: 0
