%YAML 1.1
%TAG !u! tag:unity3d.com,2011:
--- !u!114 &11400000
MonoBehaviour:
  m_ObjectHideFlags: 0
  m_CorrespondingSourceObject: {fileID: 0}
  m_PrefabInstance: {fileID: 0}
  m_PrefabAsset: {fileID: 0}
  m_GameObject: {fileID: 0}
  m_Enabled: 1
  m_EditorHideFlags: 0
  m_Script: {fileID: 11500000, guid: 5e96cbc7a712768448d8bbc1bf445f5c, type: 3}
  m_Name: Endgame Config 02
  m_EditorClassIdentifier: 
  sceneName: DefaultLevel
  bridgeSegments: 3
  allowedRunes: []
  headerText:
    m_TableReference:
      m_TableCollectionName: GUID:2718c5e09fdd48742beb6d9d35889c59
    m_TableEntryReference:
      m_KeyId: 1763203968270336
      m_Key: 
    m_FallbackState: 0
    m_WaitForCompletion: 0
    m_LocalVariables: []
  subtitleText:
    m_TableReference:
      m_TableCollectionName: 
    m_TableEntryReference:
      m_KeyId: 0
      m_Key: 
    m_FallbackState: 0
    m_WaitForCompletion: 0
    m_LocalVariables: []
  spawnMode: 0
  spawnSizeRange: {x: 25, y: 30}
  randomSpeedRange: {x: 1.2, y: 2}
  spawnOrder: 0
  spawnList: []
  showAchievement: 1
  achievementName: 3
  references:
    version: 2
    RefIds: []
