%YAML 1.1
%TAG !u! tag:unity3d.com,2011:
--- !u!114 &11400000
MonoBehaviour:
  m_ObjectHideFlags: 0
  m_CorrespondingSourceObject: {fileID: 0}
  m_PrefabInstance: {fileID: 0}
  m_PrefabAsset: {fileID: 0}
  m_GameObject: {fileID: 0}
  m_Enabled: 1
  m_EditorHideFlags: 0
  m_Script: {fileID: 11500000, guid: e9620f8c34305754d8cc9a7e49e852d9, type: 3}
  m_Name: Tutorial02_de
  m_EditorClassIdentifier: 
  m_LocaleId:
    m_Code: de
  m_SharedData: {fileID: 11400000, guid: 2b9f62cbf42a172419b3f81f16af2412, type: 2}
  m_Metadata:
    m_Items:
    - rid: 5394417685569208323
  m_TableData:
  - m_Id: 1808316693774336
    m_Localized: "Level {global.currentLevel} (Einf\xFChrung)"
    m_Metadata:
      m_Items:
      - rid: 5394417685569208323
  - m_Id: 1808679517847552
    m_Localized: Jetzt greifen auch die Dreieck-Vikinger an. Verteidige dich!
    m_Metadata:
      m_Items: []
  - m_Id: 1811133978411008
    m_Localized: "Zeichne ein Dreieck um den Dreieck-Vikinger auszuw\xE4hlen."
    m_Metadata:
      m_Items: []
  - m_Id: 1811739203895296
    m_Localized: Jetzt zeichne eine Linie um anzugreifen.
    m_Metadata:
      m_Items: []
  - m_Id: 1812288494141440
    m_Localized: "Du kannst auch eine schr\xE4ge Ecke zeichnen um die Dreieck-Vikinger
      auszuw\xE4hlen."
    m_Metadata:
      m_Items: []
  - m_Id: 1812554748559360
    m_Localized: 'Mit einer <color="yellow">passenden Rune</color> kannst du mehrere
      Gegner angreifen.

      Zeichne eine Linie um alle Dreieck-Vikinger anzugreifen.'
    m_Metadata:
      m_Items: []
  - m_Id: 1814777444466688
    m_Localized: Vergiss nicht den Viereck-Vikinger zu besiegen.
    m_Metadata:
      m_Items: []
  references:
    version: 2
    RefIds:
    - rid: 5394417685569208323
      type: {class: SmartFormatTag, ns: UnityEngine.Localization.Metadata, asm: Unity.Localization}
      data:
        m_Entries: 00802c8aa76c0600
