%YAML 1.1
%TAG !u! tag:unity3d.com,2011:
--- !u!114 &11400000
MonoBehaviour:
  m_ObjectHideFlags: 0
  m_CorrespondingSourceObject: {fileID: 0}
  m_PrefabInstance: {fileID: 0}
  m_PrefabAsset: {fileID: 0}
  m_GameObject: {fileID: 0}
  m_Enabled: 1
  m_EditorHideFlags: 0
  m_Script: {fileID: 11500000, guid: e9620f8c34305754d8cc9a7e49e852d9, type: 3}
  m_Name: Tutorial02_ru
  m_EditorClassIdentifier: 
  m_LocaleId:
    m_Code: ru
  m_SharedData: {fileID: 11400000, guid: 2b9f62cbf42a172419b3f81f16af2412, type: 2}
  m_Metadata:
    m_Items:
    - rid: 5394417778964824068
  m_TableData:
  - m_Id: 1808316693774336
    m_Localized: "\u0423\u0440\u043E\u0432\u0435\u043D\u044C {global.currentLevel}
      (\u0432\u0432\u0435\u0434\u0435\u043D\u0438\u0435)"
    m_Metadata:
      m_Items:
      - rid: 5394417778964824068
  - m_Id: 1808679517847552
    m_Localized: "\u0422\u0435\u043F\u0435\u0440\u044C \u043D\u0430\u043F\u0430\u0434\u0430\u044E\u0442
      \u0442\u0440\u0435\u0443\u0433\u043E\u043B\u044C\u043D\u044B\u0435 \u0432\u0438\u043A\u0438\u043D\u0433\u0438.
      \u0417\u0430\u0449\u0438\u0449\u0430\u0439\u0441\u044F!"
    m_Metadata:
      m_Items: []
  - m_Id: 1811133978411008
    m_Localized: "\u0420\u0438\u0441\u0443\u0439 \u0442\u0440\u0435\u0443\u0433\u043E\u043B\u044C\u043D\u0438\u043A,
      \u0447\u0442\u043E \u0431\u044B \u0432\u044B\u0431\u0440\u0430\u0442\u044C
      \u0442\u0440\u0435\u0443\u0433\u043E\u043B\u044C\u043D\u043E\u0433\u043E \u0412\u0438\u043A\u0438\u043D\u0433\u0430."
    m_Metadata:
      m_Items: []
  - m_Id: 1811739203895296
    m_Localized: "\u0420\u0438\u0441\u0443\u0439 \u043F\u0440\u044F\u043C\u0443\u044E
      \u043B\u0438\u043D\u0438\u044E \u0447\u0442\u043E \u0431\u044B \u043D\u0430\u043F\u0430\u0441\u0442\u044C."
    m_Metadata:
      m_Items: []
  - m_Id: 1812288494141440
    m_Localized: "\u0422\u044B \u043C\u043E\u0436\u0435\u0448\u044C \u0442\u0430\u043A\u0436\u0435
      \u043D\u0430\u0440\u0438\u0441\u043E\u0432\u0430\u0442\u044C \u043E\u0441\u0442\u0440\u044B\u0439
      \u0443\u0433\u043E\u043B \u0447\u0442\u043E\u0431\u044B \u0432\u044B\u0431\u0440\u0430\u0442\u044C
      \u0442\u0440\u0435\u0443\u0433\u043E\u043B\u044C\u043D\u043E\u0433\u043E \u0432\u0438\u043A\u0438\u043D\u0433\u0430."
    m_Metadata:
      m_Items: []
  - m_Id: 1812554748559360
    m_Localized: "\u0421 <color=\"yellow\">\u043F\u043E\u0434\u0445\u043E\u0434\u044F\u0449\u0435\u0439
      \u0440\u0443\u043D\u044B</color> \u043C\u043E\u0436\u043D\u043E \u043D\u0430\u043F\u0430\u0434\u0430\u0442\u044C
      \u0441\u0440\u0430\u0437\u0443 \u043D\u0430 \u043D\u0435\u0441\u043A\u043E\u043B\u044C\u043A\u0438\u0445
      \u043F\u0440\u043E\u0442\u0438\u0432\u043D\u0438\u043A\u043E\u0432.\n\u041D\u0430\u0440\u0438\u0441\u0443\u0439
      \u043B\u0438\u043D\u0438\u044E \u0447\u0442\u043E\u0431\u044B \u0430\u0442\u0430\u043A\u043E\u0432\u0430\u0442\u044C
      \u0432\u0441\u0435\u0445 \u0442\u0440\u0435\u0443\u0433\u043E\u043B\u044C\u043D\u044B\u0445
      \u0432\u0438\u043A\u0438\u043D\u0433\u043E\u0432."
    m_Metadata:
      m_Items: []
  - m_Id: 1814777444466688
    m_Localized: "\u041D\u0435 \u0437\u0430\u0431\u0443\u0434\u044C \u043F\u043E\u0431\u0435\u0434\u0438\u0442\u044C
      \u0447\u0435\u0442\u044B\u0440\u0451\u0445\u0443\u0433\u043E\u043B\u044C\u043D\u044B\u0445
      \u0432\u0438\u043A\u0438\u043D\u0433\u043E\u0432."
    m_Metadata:
      m_Items: []
  references:
    version: 2
    RefIds:
    - rid: 5394417778964824068
      type: {class: SmartFormatTag, ns: UnityEngine.Localization.Metadata, asm: Unity.Localization}
      data:
        m_Entries: 00802c8aa76c0600
