%YAML 1.1
%TAG !u! tag:unity3d.com,2011:
--- !u!114 &11400000
MonoBehaviour:
  m_ObjectHideFlags: 0
  m_CorrespondingSourceObject: {fileID: 0}
  m_PrefabInstance: {fileID: 0}
  m_PrefabAsset: {fileID: 0}
  m_GameObject: {fileID: 0}
  m_Enabled: 1
  m_EditorHideFlags: 0
  m_Script: {fileID: 11500000, guid: 5be51871efa6c3e4eae1703925c8f5ac, type: 3}
  m_Name: Tutorial02
  m_EditorClassIdentifier: 
  m_SharedTableData: {fileID: 11400000, guid: 2b9f62cbf42a172419b3f81f16af2412, type: 2}
  m_Tables:
  - {fileID: 11400000, guid: 482ab8ecf1e5c434d8c7b723ff64e108, type: 2}
  - {fileID: 11400000, guid: 2ad0aea20edba314eb1332a1830ba9e4, type: 2}
  - {fileID: 11400000, guid: 835dd0cb139d3db40a9be6d90940a224, type: 2}
  m_Extensions: []
  m_Group: String Table
  references:
    version: 2
    RefIds: []
