%YAML 1.1
%TAG !u! tag:unity3d.com,2011:
--- !u!114 &11400000
MonoBehaviour:
  m_ObjectHideFlags: 0
  m_CorrespondingSourceObject: {fileID: 0}
  m_PrefabInstance: {fileID: 0}
  m_PrefabAsset: {fileID: 0}
  m_GameObject: {fileID: 0}
  m_Enabled: 1
  m_EditorHideFlags: 0
  m_Script: {fileID: 11500000, guid: e9620f8c34305754d8cc9a7e49e852d9, type: 3}
  m_Name: Tutorial04_de
  m_EditorClassIdentifier: 
  m_LocaleId:
    m_Code: de
  m_SharedData: {fileID: 11400000, guid: 937cd81096c2a044fa1756519fb3f7d3, type: 2}
  m_Metadata:
    m_Items:
    - rid: 5394417685569208332
  m_TableData:
  - m_Id: 1818622711070720
    m_Localized: "Level {global.currentLevel} (Einf\xFChrung)"
    m_Metadata:
      m_Items:
      - rid: 5394417685569208332
  - m_Id: 1818833911054336
    m_Localized: "Die Vikinger sind schon wieder zur\xFCck!\nIhr neues Ziel ist eine
      gr\xF6\xDFere Br\xFCcke.\nDu musst sie verteidigen!"
    m_Metadata:
      m_Items: []
  - m_Id: 1819123204784128
    m_Localized: "Dr\xFCcke auf ein anderes Br\xFCckenteil, um Gegner auf anderen
      Reihen anzugreifen."
    m_Metadata:
      m_Items: []
  - m_Id: 1819772109750272
    m_Localized: Jetzt kannst du die Gegner angreifen.
    m_Metadata:
      m_Items: []
  - m_Id: 1819930352451584
    m_Localized: "Mehr Vikinger!\nGeh zur\xFCck zur anderen Reihe um angreifen zu
      k\xF6nnen."
    m_Metadata:
      m_Items: []
  - m_Id: 1820103476543488
    m_Localized: Jetzt besiege sie alle!
    m_Metadata:
      m_Items: []
  references:
    version: 2
    RefIds:
    - rid: 5394417685569208332
      type: {class: SmartFormatTag, ns: UnityEngine.Localization.Metadata, asm: Unity.Localization}
      data:
        m_Entries: 0080ac1807760600
