%YAML 1.1
%TAG !u! tag:unity3d.com,2011:
--- !u!114 &11400000
MonoBehaviour:
  m_ObjectHideFlags: 0
  m_CorrespondingSourceObject: {fileID: 0}
  m_PrefabInstance: {fileID: 0}
  m_PrefabAsset: {fileID: 0}
  m_GameObject: {fileID: 0}
  m_Enabled: 1
  m_EditorHideFlags: 0
  m_Script: {fileID: 11500000, guid: 5be51871efa6c3e4eae1703925c8f5ac, type: 3}
  m_Name: Tutorial04
  m_EditorClassIdentifier: 
  m_SharedTableData: {fileID: 11400000, guid: 937cd81096c2a044fa1756519fb3f7d3, type: 2}
  m_Tables:
  - {fileID: 11400000, guid: a6d8a151f2d7e0e4599de0c64de25a1d, type: 2}
  - {fileID: 11400000, guid: 8d0ca650a5d809e48b95b833485b2762, type: 2}
  - {fileID: 11400000, guid: 598c7c0136ee2364cbf70b436f22f060, type: 2}
  m_Extensions: []
  m_Group: String Table
  references:
    version: 2
    RefIds: []
