%YAML 1.1
%TAG !u! tag:unity3d.com,2011:
--- !u!114 &11400000
MonoBehaviour:
  m_ObjectHideFlags: 0
  m_CorrespondingSourceObject: {fileID: 0}
  m_PrefabInstance: {fileID: 0}
  m_PrefabAsset: {fileID: 0}
  m_GameObject: {fileID: 0}
  m_Enabled: 1
  m_EditorHideFlags: 0
  m_Script: {fileID: 11500000, guid: 5be51871efa6c3e4eae1703925c8f5ac, type: 3}
  m_Name: Tutorial01
  m_EditorClassIdentifier: 
  m_SharedTableData: {fileID: 11400000, guid: e2ff0206878ebdb4099bed53a4fffced, type: 2}
  m_Tables:
  - {fileID: 11400000, guid: ff2c6896fcabdb743943db7c29b65364, type: 2}
  - {fileID: 11400000, guid: 55e1cfa6bddacea49af04c924a71087f, type: 2}
  - {fileID: 11400000, guid: 7a5a0e22986b606479ab2209f2645482, type: 2}
  m_Extensions: []
  m_Group: String Table
  references:
    version: 2
    RefIds: []
