%YAML 1.1
%TAG !u! tag:unity3d.com,2011:
--- !u!114 &11400000
MonoBehaviour:
  m_ObjectHideFlags: 0
  m_CorrespondingSourceObject: {fileID: 0}
  m_PrefabInstance: {fileID: 0}
  m_PrefabAsset: {fileID: 0}
  m_GameObject: {fileID: 0}
  m_Enabled: 1
  m_EditorHideFlags: 0
  m_Script: {fileID: 11500000, guid: e9620f8c34305754d8cc9a7e49e852d9, type: 3}
  m_Name: Tutorial01_ru
  m_EditorClassIdentifier: 
  m_LocaleId:
    m_Code: ru
  m_SharedData: {fileID: 11400000, guid: e2ff0206878ebdb4099bed53a4fffced, type: 2}
  m_Metadata:
    m_Items:
    - rid: 5394417778964824067
  m_TableData:
  - m_Id: 1783739884273664
    m_Localized: "\u0423\u0440\u043E\u0432\u0435\u043D\u044C {global.currentLevel}
      (\u0432\u0432\u0435\u0434\u0435\u043D\u0438\u0435)"
    m_Metadata:
      m_Items:
      - rid: 5394417778964824067
  - m_Id: 1783841541619712
    m_Localized: "\u041F\u0440\u044F\u043C\u043E\u0443\u0433\u043E\u043B\u044C\u043D\u044B\u0435
      \u0432\u0438\u043A\u0438\u043D\u0433\u0438 \u043D\u0430\u043F\u0430\u0434\u0430\u044E\u0442
      \u043D\u0430 \u0442\u0435\u0431\u044F. \u0417\u0430\u0449\u0438\u0449\u0430\u0439\u0441\u044F!"
    m_Metadata:
      m_Items: []
  - m_Id: 1785477425037312
    m_Localized: "\u041D\u0430\u0440\u0438\u0441\u0443\u0439 \u043F\u0440\u044F\u043C\u043E\u0443\u0433\u043E\u043B\u044C\u043D\u0438\u043A,
      \u0447\u0442\u043E\u0431\u044B \u0432\u044B\u0431\u0440\u0430\u0442\u044C \u043F\u0440\u044F\u043C\u043E\u0443\u0433\u043E\u043B\u044C\u043D\u043E\u0433\u043E
      \u0432\u0438\u043A\u0438\u043D\u0433\u0430."
    m_Metadata:
      m_Items: []
  - m_Id: 1786326230532096
    m_Localized: "\u0420\u0443\u043D\u044B \u0438 \u0441\u043E\u043E\u0442\u0432\u0435\u0442\u0441\u0442\u0432\u0443\u044E\u0449\u0438\u0435
      \u043F\u0440\u043E\u0442\u0438\u0432\u043D\u0438\u043A\u0438 \u0432\u044B\u0434\u0435\u043B\u0435\u043D\u044B
      <color=\"yellow\">\u0436\u0435\u043B\u0442\u044B\u043C</color> \u0446\u0432\u0435\u0442\u043E\u043C."
    m_Metadata:
      m_Items: []
  - m_Id: 1788236513705984
    m_Localized: "\u041D\u0430\u0440\u0438\u0441\u0443\u0439 \u043F\u0440\u044F\u043C\u0443\u044E
      \u043B\u0438\u043D\u0438\u044E \u0447\u0442\u043E\u0431\u044B \u043D\u0430\u043F\u0430\u0441\u0442\u044C"
    m_Metadata:
      m_Items: []
  - m_Id: 1788525316702208
    m_Localized: "\u0422\u044B \u043C\u043E\u0436\u0435\u0448\u044C \u043D\u0430\u0440\u0438\u0441\u043E\u0432\u0430\u0442\u044C
      \u043F\u0440\u044F\u043C\u043E\u0439 \u0443\u0433\u043E\u043B, \u0447\u0442\u043E\u0431\u044B
      \u0432\u044B\u0431\u0440\u0430\u0442\u044C \u043F\u0440\u044F\u043C\u043E\u0443\u0433\u043E\u043B\u044C\u043D\u043E\u0433\u043E
      \u0412\u0438\u043A\u0438\u043D\u0433\u0430"
    m_Metadata:
      m_Items: []
  - m_Id: 1788996311875584
    m_Localized: "\u041D\u0430\u0440\u0438\u0441\u0443\u0439 \u043E\u043F\u044F\u0442\u044C
      \u043F\u0440\u044F\u043C\u0443\u044E \u043B\u0438\u043D\u0438\u044E \u0447\u0442\u043E\u0431\u044B
      \u043D\u0430\u043F\u0430\u0441\u0442\u044C"
    m_Metadata:
      m_Items: []
  - m_Id: 1789751739580416
    m_Localized: "\u0422\u044B \u043C\u043E\u0436\u0435\u0448\u044C \u0440\u0438\u0441\u043E\u0432\u0430\u0442\u044C
      \u0440\u0443\u043D\u044B \u0431\u0435\u0437 \u043E\u0433\u0440\u0430\u043D\u0438\u0447\u0435\u043D\u0438\u044F.
      \n\n\u041F\u043E\u043F\u0440\u043E\u0431\u0443\u0439 \u043D\u0430\u0440\u0438\u0441\u043E\u0432\u0430\u0442\u044C
      3 \u0440\u0443\u043D\u044B."
    m_Metadata:
      m_Items: []
  - m_Id: 1789999706832896
    m_Localized: "\u0415\u0441\u043B\u0438 \u0421\u043B\u043E\u0442 \u0434\u043B\u044F
      \u0440\u0443\u043D \u043F\u043E\u043B\u043E\u043D, \u043A\u0430\u0436\u0434\u0430\u044F
      \u043D\u043E\u0432\u0430\u044F \u0440\u0443\u043D\u0430 \u0443\u0434\u0430\u043B\u044F\u0435\u0442
      \u043F\u0435\u0440\u0432\u0443\u044E."
    m_Metadata:
      m_Items: []
  - m_Id: 1791206466813952
    m_Localized: "\u041D\u0430\u0440\u0438\u0441\u0443\u0439 \u0433\u043E\u0440\u0438\u0437\u043E\u043D\u0442\u0430\u043B\u044C\u043D\u0443\u044E
      \u043B\u0438\u043D\u0438\u044E \u0434\u043B\u044F \u0443\u0434\u0430\u043B\u0435\u043D\u0438\u044F
      \u0432\u0441\u0435\u0445 \u0440\u0443\u043D."
    m_Metadata:
      m_Items: []
  - m_Id: 13132258486288384
    m_Localized: "\u041D\u0430\u0436\u043C\u0438\u0442\u0435 \u043D\u0430 \u0431\u0430\u043D\u043D\u0435\u0440
      \u043C\u0435\u043D\u044E, \u0447\u0442\u043E\u0431\u044B \u043F\u0440\u0438\u043E\u0441\u0442\u0430\u043D\u043E\u0432\u0438\u0442\u044C
      \u0438\u0433\u0440\u0443."
    m_Metadata:
      m_Items: []
  references:
    version: 2
    RefIds:
    - rid: 5394417778964824067
      type: {class: SmartFormatTag, ns: UnityEngine.Localization.Metadata, asm: Unity.Localization}
      data:
        m_Entries: 00802c4e4d560600
