%YAML 1.1
%TAG !u! tag:unity3d.com,2011:
--- !u!114 &11400000
MonoBehaviour:
  m_ObjectHideFlags: 0
  m_CorrespondingSourceObject: {fileID: 0}
  m_PrefabInstance: {fileID: 0}
  m_PrefabAsset: {fileID: 0}
  m_GameObject: {fileID: 0}
  m_Enabled: 1
  m_EditorHideFlags: 0
  m_Script: {fileID: 11500000, guid: a6b194f808b1af6499c93410e504af42, type: 3}
  m_Name: circle_enemy_Atlas
  m_EditorClassIdentifier: 
  atlasFile: {fileID: 4900000, guid: 22c3ca01c0fa04e63ab621e86d47f5a6, type: 3}
  materials:
  - {fileID: 2100000, guid: 48222fa551d0a4d2aa5eda79c4a75906, type: 2}
  - {fileID: 2100000, guid: fea32835827b648c88faaa4d6e2235d2, type: 2}
