%YAML 1.1
%TAG !u! tag:unity3d.com,2011:
--- !u!114 &11400000
MonoBehaviour:
  m_ObjectHideFlags: 0
  m_CorrespondingSourceObject: {fileID: 0}
  m_PrefabInstance: {fileID: 0}
  m_PrefabAsset: {fileID: 0}
  m_GameObject: {fileID: 0}
  m_Enabled: 1
  m_EditorHideFlags: 0
  m_Script: {fileID: 11500000, guid: bbb281ee3bf0b054c82ac2347e9e782c, type: 3}
  m_Name: Localization-Assets-Shared
  m_EditorClassIdentifier: 
  m_GroupName: Localization-Assets-Shared
  m_Data:
    m_SerializedData: []
  m_GUID: 1bd42c42dfda2c349ba16314645e2243
  m_SerializeEntries:
  - m_GUID: 2718c5e09fdd48742beb6d9d35889c59
    m_Address: Assets/Localization/Tables/BaseGame/BaseGame Shared Data.asset
    m_ReadOnly: 1
    m_SerializedLabels: []
    FlaggedDuringContentUpdateRestriction: 0
  - m_GUID: 2cc7863aa7b6ce3459fd93e671b8e730
    m_Address: Assets/Localization/Tables/StartMenu/StartMenu Shared Data.asset
    m_ReadOnly: 1
    m_SerializedLabels: []
    FlaggedDuringContentUpdateRestriction: 0
  - m_GUID: e2ff0206878ebdb4099bed53a4fffced
    m_Address: Assets/Localization/Tables/Tutorials/Tutorial01/Tutorial01 Shared
      Data.asset
    m_ReadOnly: 1
    m_SerializedLabels: []
    FlaggedDuringContentUpdateRestriction: 0
  - m_GUID: 2b9f62cbf42a172419b3f81f16af2412
    m_Address: Assets/Localization/Tables/Tutorials/Tutorial02/Tutorial02 Shared
      Data.asset
    m_ReadOnly: 1
    m_SerializedLabels: []
    FlaggedDuringContentUpdateRestriction: 0
  - m_GUID: 3a452e550aea99d42932ddf01d6c3964
    m_Address: Assets/Localization/Tables/Tutorials/Tutorial03/Tutorial03 Shared
      Data.asset
    m_ReadOnly: 1
    m_SerializedLabels: []
    FlaggedDuringContentUpdateRestriction: 0
  - m_GUID: 937cd81096c2a044fa1756519fb3f7d3
    m_Address: Assets/Localization/Tables/Tutorials/Tutorial04/Tutorial04 Shared
      Data.asset
    m_ReadOnly: 1
    m_SerializedLabels: []
    FlaggedDuringContentUpdateRestriction: 0
  - m_GUID: 93d8d54e22d60b148a84a5a16c7a0410
    m_Address: Assets/Localization/Tables/Tutorials/Tutorial05/Tutorial05 Shared
      Data.asset
    m_ReadOnly: 1
    m_SerializedLabels: []
    FlaggedDuringContentUpdateRestriction: 0
  - m_GUID: 696b1d2e8443b5d40aa49b16b3b93e1e
    m_Address: Assets/Localization/Tables/Tutorials/TutorialsGlobal Shared Data.asset
    m_ReadOnly: 1
    m_SerializedLabels: []
    FlaggedDuringContentUpdateRestriction: 0
  m_ReadOnly: 1
  m_Settings: {fileID: 11400000, guid: 57856a778e02e9e42a352b7bca54f3ad, type: 2}
  m_SchemaSet:
    m_Schemas:
    - {fileID: 11400000, guid: fac02424c8db0fb439358ee987df7c02, type: 2}
    - {fileID: 11400000, guid: 7dbfded4a258ec746904f73cf3d96d66, type: 2}
