%YAML 1.1
%TAG !u! tag:unity3d.com,2011:
--- !u!114 &11400000
MonoBehaviour:
  m_ObjectHideFlags: 0
  m_CorrespondingSourceObject: {fileID: 0}
  m_PrefabInstance: {fileID: 0}
  m_PrefabAsset: {fileID: 0}
  m_GameObject: {fileID: 0}
  m_Enabled: 1
  m_EditorHideFlags: 0
  m_Script: {fileID: 11500000, guid: bbb281ee3bf0b054c82ac2347e9e782c, type: 3}
  m_Name: Localization-String-Tables-English (en)
  m_EditorClassIdentifier: 
  m_GroupName: Localization-String-Tables-English (en)
  m_Data:
    m_SerializedData: []
  m_GUID: b1543fd4be9eb1c42b2421900c339849
  m_SerializeEntries:
  - m_GUID: b108c0cb8f9047f4c8e04f52774c5515
    m_Address: BaseGame_en
    m_ReadOnly: 1
    m_SerializedLabels:
    - Locale-en
    FlaggedDuringContentUpdateRestriction: 0
  - m_GUID: 23732dacdbd9f5742a00ddfb26c38d80
    m_Address: StartMenu_en
    m_ReadOnly: 1
    m_SerializedLabels:
    - Locale-en
    FlaggedDuringContentUpdateRestriction: 0
  - m_GUID: ff2c6896fcabdb743943db7c29b65364
    m_Address: Tutorial01_en
    m_ReadOnly: 1
    m_SerializedLabels:
    - Locale-en
    FlaggedDuringContentUpdateRestriction: 0
  - m_GUID: 482ab8ecf1e5c434d8c7b723ff64e108
    m_Address: Tutorial02_en
    m_ReadOnly: 1
    m_SerializedLabels:
    - Locale-en
    FlaggedDuringContentUpdateRestriction: 0
  - m_GUID: 6a3778114276c6540b2d636f1e7ef7bb
    m_Address: Tutorial03_en
    m_ReadOnly: 1
    m_SerializedLabels:
    - Locale-en
    FlaggedDuringContentUpdateRestriction: 0
  - m_GUID: a6d8a151f2d7e0e4599de0c64de25a1d
    m_Address: Tutorial04_en
    m_ReadOnly: 1
    m_SerializedLabels:
    - Locale-en
    FlaggedDuringContentUpdateRestriction: 0
  - m_GUID: 359788463624e564a90944e566afa770
    m_Address: Tutorial05_en
    m_ReadOnly: 1
    m_SerializedLabels:
    - Locale-en
    FlaggedDuringContentUpdateRestriction: 0
  - m_GUID: 5451ba2f9df3ba3408320b123a1cbe6e
    m_Address: TutorialsGlobal_en
    m_ReadOnly: 1
    m_SerializedLabels:
    - Locale-en
    FlaggedDuringContentUpdateRestriction: 0
  m_ReadOnly: 1
  m_Settings: {fileID: 11400000, guid: 57856a778e02e9e42a352b7bca54f3ad, type: 2}
  m_SchemaSet:
    m_Schemas:
    - {fileID: 11400000, guid: bb569b892c265844c8169079a324877d, type: 2}
    - {fileID: 11400000, guid: 4f270a23b5aa3cc44b3c977e60c9f38d, type: 2}
