%YAML 1.1
%TAG !u! tag:unity3d.com,2011:
--- !u!114 &11400000
MonoBehaviour:
  m_ObjectHideFlags: 0
  m_CorrespondingSourceObject: {fileID: 0}
  m_PrefabInstance: {fileID: 0}
  m_PrefabAsset: {fileID: 0}
  m_GameObject: {fileID: 0}
  m_Enabled: 1
  m_EditorHideFlags: 0
  m_Script: {fileID: 11500000, guid: d1aadb6adc5b29f42a289a45be711c5e, type: 3}
  m_Name: DefaultLevel Setup
  m_EditorClassIdentifier: 
  setups:
  - m_Path: Assets/Scenes/BaseGame.unity
    m_IsLoaded: 1
    m_IsActive: 1
    m_IsSubScene: 0
  - m_Path: Assets/Scenes/Levels/DefaultLevel.unity
    m_IsLoaded: 1
    m_IsActive: 0
    m_IsSubScene: 0
