%YAML 1.1
%TAG !u! tag:unity3d.com,2011:
--- !u!114 &11400000
MonoBehaviour:
  m_ObjectHideFlags: 0
  m_CorrespondingSourceObject: {fileID: 0}
  m_PrefabInstance: {fileID: 0}
  m_PrefabAsset: {fileID: 0}
  m_GameObject: {fileID: 0}
  m_Enabled: 1
  m_EditorHideFlags: 0
  m_Script: {fileID: 11500000, guid: 4fd5509c808f82e418edc524711a82e7, type: 3}
  m_Name: Tutorial03 Config
  m_EditorClassIdentifier: 
  sceneName: Tutorial03 (STC)
  bridgeSegments: 1
  allowedRunes:
  - majorType: 3
    subType: 1
  - majorType: 3
    subType: 2
  - majorType: 3
    subType: 3
