%YAML 1.1
%TAG !u! tag:unity3d.com,2011:
--- !u!114 &11400000
MonoBehaviour:
  m_ObjectHideFlags: 0
  m_CorrespondingSourceObject: {fileID: 0}
  m_PrefabInstance: {fileID: 0}
  m_PrefabAsset: {fileID: 0}
  m_GameObject: {fileID: 0}
  m_Enabled: 1
  m_EditorHideFlags: 0
  m_Script: {fileID: 11500000, guid: 5e96cbc7a712768448d8bbc1bf445f5c, type: 3}
  m_Name: Tutorial04 Default Config 04
  m_EditorClassIdentifier: 
  sceneName: DefaultLevel
  bridgeSegments: 3
  allowedRunes:
  - majorType: 3
    subType: 1
  - majorType: 3
    subType: 2
  - majorType: 3
    subType: 3
  headerText:
    m_TableReference:
      m_TableCollectionName: GUID:696b1d2e8443b5d40aa49b16b3b93e1e
    m_TableEntryReference:
      m_KeyId: 727584636928
      m_Key: 
    m_FallbackState: 0
    m_WaitForCompletion: 0
    m_LocalVariables: []
  subtitleText:
    m_TableReference:
      m_TableCollectionName: GUID:696b1d2e8443b5d40aa49b16b3b93e1e
    m_TableEntryReference:
      m_KeyId: 1120754499584
      m_Key: 
    m_FallbackState: 0
    m_WaitForCompletion: 0
    m_LocalVariables: []
  spawnMode: 0
  spawnSizeRange: {x: 20, y: 20}
  randomSpeedRange: {x: 1.3, y: 1.5}
  spawnOrder: 0
  spawnList: []
  showAchievement: 0
  achievementName: 0
  references:
    version: 2
    RefIds: []
