%YAML 1.1
%TAG !u! tag:unity3d.com,2011:
--- !u!114 &11400000
MonoBehaviour:
  m_ObjectHideFlags: 0
  m_CorrespondingSourceObject: {fileID: 0}
  m_PrefabInstance: {fileID: 0}
  m_PrefabAsset: {fileID: 0}
  m_GameObject: {fileID: 0}
  m_Enabled: 1
  m_EditorHideFlags: 0
  m_Script: {fileID: 11500000, guid: 5b11a58205ec3474ca216360e9fa74a8, type: 3}
  m_Name: TutorialsGlobal Shared Data
  m_EditorClassIdentifier: 
  m_TableCollectionName: TutorialsGlobal
  m_TableCollectionNameGuidString: 696b1d2e8443b5d40aa49b16b3b93e1e
  m_Entries:
  - m_Id: 82362269696
    m_Key: UI current level header tutorial
    m_Metadata:
      m_Items: []
  - m_Id: 727584636928
    m_Key: UI current level header practice
    m_Metadata:
      m_Items: []
  - m_Id: 895239356416
    m_Key: UI tryout subtitle
    m_Metadata:
      m_Items: []
  - m_Id: 1120754499584
    m_Key: UI another wave subtitle
    m_Metadata:
      m_Items: []
  - m_Id: 1213654138880
    m_Key: UI more rows subtitle
    m_Metadata:
      m_Items: []
  m_Metadata:
    m_Items: []
  m_KeyGenerator:
    rid: 5394417668660920323
  references:
    version: 2
    RefIds:
    - rid: 5394417668660920323
      type: {class: DistributedUIDGenerator, ns: UnityEngine.Localization.Tables,
        asm: Unity.Localization}
      data:
        m_CustomEpoch: 1639444303881
