%YAML 1.1
%TAG !u! tag:unity3d.com,2011:
--- !u!114 &11400000
MonoBehaviour:
  m_ObjectHideFlags: 0
  m_CorrespondingSourceObject: {fileID: 0}
  m_PrefabInstance: {fileID: 0}
  m_PrefabAsset: {fileID: 0}
  m_GameObject: {fileID: 0}
  m_Enabled: 1
  m_EditorHideFlags: 0
  m_Script: {fileID: 11500000, guid: e9620f8c34305754d8cc9a7e49e852d9, type: 3}
  m_Name: TutorialsGlobal_ru
  m_EditorClassIdentifier: 
  m_LocaleId:
    m_Code: ru
  m_SharedData: {fileID: 11400000, guid: 696b1d2e8443b5d40aa49b16b3b93e1e, type: 2}
  m_Metadata:
    m_Items:
    - rid: 5394417668660920326
  m_TableData:
  - m_Id: 727584636928
    m_Localized: "\u0423\u0440\u043E\u0432\u0435\u043D\u044C {global.currentLevel}
      (\u0443\u043F\u0440\u0430\u0436\u043D\u0435\u043D\u0438\u0435)"
    m_Metadata:
      m_Items:
      - rid: 5394417668660920326
  - m_Id: 82362269696
    m_Localized: "\u0423\u0440\u043E\u0432\u0435\u043D\u044C {global.currentLevel}
      (\u0432\u0432\u0435\u0434\u0435\u043D\u0438\u0435)"
    m_Metadata:
      m_Items:
      - rid: 5394417668660920326
  - m_Id: 895239356416
    m_Localized: "\u0422\u0435\u043F\u0435\u0440\u044C \u0434\u0430\u0432\u0430\u0439\u0442\u0435
      \u043F\u0440\u043E\u0432\u0435\u0440\u0438\u043C, \u0447\u0442\u043E \u0432\u044B
      \u0443\u0437\u043D\u0430\u043B\u0438.\r\n\u041F\u043E\u0431\u0435\u0434\u0438\u0442\u0435
      \u0432\u0441\u0435\u0445 \u043F\u0440\u043E\u0442\u0438\u0432\u043D\u0438\u043A\u043E\u0432!"
    m_Metadata:
      m_Items: []
  - m_Id: 1120754499584
    m_Localized: "\u0415\u0449\u0435 \u043E\u0434\u043D\u0430 \u0432\u043E\u043B\u043D\u0430.
      \u0414\u0435\u0440\u0436\u0438\u0441\u044C!"
    m_Metadata:
      m_Items: []
  - m_Id: 1213654138880
    m_Localized: "\u0423 \u044D\u0442\u043E\u0433\u043E \u043C\u043E\u0441\u0442\u0430
      \u0435\u0449\u0435 \u0431\u043E\u043B\u044C\u0448\u0435 \u0441\u0435\u0433\u043C\u0435\u043D\u0442\u043E\u0432.
      \u0417\u0430\u0449\u0438\u0449\u0430\u0439\u0441\u044F!"
    m_Metadata:
      m_Items: []
  references:
    version: 2
    RefIds:
    - rid: 5394417668660920326
      type: {class: SmartFormatTag, ns: UnityEngine.Localization.Metadata, asm: Unity.Localization}
      data:
        m_Entries: 00806c67a900000000802c2d13000000
