%YAML 1.1
%TAG !u! tag:unity3d.com,2011:
--- !u!114 &11400000
MonoBehaviour:
  m_ObjectHideFlags: 0
  m_CorrespondingSourceObject: {fileID: 0}
  m_PrefabInstance: {fileID: 0}
  m_PrefabAsset: {fileID: 0}
  m_GameObject: {fileID: 0}
  m_Enabled: 1
  m_EditorHideFlags: 0
  m_Script: {fileID: 11500000, guid: 468a46d0ae32c3544b7d98094e6448a9, type: 3}
  m_Name: AddressableAssetSettings
  m_EditorClassIdentifier: 
  m_DefaultGroup: ed64e581d4d025c40a4c89683d6301d6
  m_CachedHash:
    serializedVersion: 2
    Hash: 00000000000000000000000000000000
  m_OptimizeCatalogSize: 0
  m_BuildRemoteCatalog: 0
  m_BundleLocalCatalog: 0
  m_CatalogRequestsTimeout: 0
  m_DisableCatalogUpdateOnStart: 0
  m_IgnoreUnsupportedFilesInBuild: 0
  m_UniqueBundleIds: 0
  m_NonRecursiveBuilding: 1
  m_CCDEnabled: 0
  m_maxConcurrentWebRequests: 500
  m_ContiguousBundles: 1
  m_StripUnityVersionFromBundleBuild: 0
  m_DisableVisibleSubAssetRepresentations: 0
  m_ShaderBundleNaming: 0
  m_ShaderBundleCustomNaming: 
  m_MonoScriptBundleNaming: 0
  m_MonoScriptBundleCustomNaming: 
  m_RemoteCatalogBuildPath:
    m_Id: fc2b20ffb69cb0a44a7d03bd412f0ca5
  m_RemoteCatalogLoadPath:
    m_Id: d666031594e316a488902f141f0b5f85
  m_ContentStateBuildPath: 
  m_BuildAddressablesWithPlayerBuild: 0
  m_overridePlayerVersion: 
  m_GroupAssets:
  - {fileID: 11400000, guid: 68b4a33be4583a748ad8508691a126ee, type: 2}
  - {fileID: 11400000, guid: 952816d6010b18b4983eadfa3d683696, type: 2}
  - {fileID: 11400000, guid: 664099f4d237109419e15011b0a3cc64, type: 2}
  - {fileID: 11400000, guid: 8bea6e97ad7fbbb44b8feac304a2055b, type: 2}
  - {fileID: 11400000, guid: 8fc7b679ee75cca40aa454a896581149, type: 2}
  - {fileID: 11400000, guid: b1b8b3efec2e1fe469d07ed2ba1313da, type: 2}
  - {fileID: 11400000, guid: aa020459717d587448600c3b373847bd, type: 2}
  m_BuildSettings:
    m_CompileScriptsInVirtualMode: 0
    m_CleanupStreamingAssetsAfterBuilds: 1
    m_LogResourceManagerExceptions: 1
    m_BundleBuildPath: Temp/com.unity.addressables/AssetBundles
  m_ProfileSettings:
    m_Profiles:
    - m_InheritedParent: 
      m_Id: 4d39f26fbc1f8dd43bfe561d15563221
      m_ProfileName: Default
      m_Values:
      - m_Id: 6e0aac10a6e066a449af54e5ba0c4e0d
        m_Value: '[UnityEditor.EditorUserBuildSettings.activeBuildTarget]'
      - m_Id: 42f813f31f7cc4f4490ed09fa0cce911
        m_Value: '[UnityEngine.AddressableAssets.Addressables.BuildPath]/[BuildTarget]'
      - m_Id: e67d98433466b79429ea95fd38606901
        m_Value: '{UnityEngine.AddressableAssets.Addressables.RuntimePath}/[BuildTarget]'
      - m_Id: fc2b20ffb69cb0a44a7d03bd412f0ca5
        m_Value: ServerData/[BuildTarget]
      - m_Id: d666031594e316a488902f141f0b5f85
        m_Value: http://[PrivateIpAddress]:[HostingServicePort]
    m_ProfileEntryNames:
    - m_Id: 6e0aac10a6e066a449af54e5ba0c4e0d
      m_Name: BuildTarget
      m_InlineUsage: 0
    - m_Id: 42f813f31f7cc4f4490ed09fa0cce911
      m_Name: Local.BuildPath
      m_InlineUsage: 0
    - m_Id: e67d98433466b79429ea95fd38606901
      m_Name: Local.LoadPath
      m_InlineUsage: 0
    - m_Id: fc2b20ffb69cb0a44a7d03bd412f0ca5
      m_Name: Remote.BuildPath
      m_InlineUsage: 0
    - m_Id: d666031594e316a488902f141f0b5f85
      m_Name: Remote.LoadPath
      m_InlineUsage: 0
    m_ProfileVersion: 1
  m_LabelTable:
    m_LabelNames:
    - default
    - Locale
    - Locale-de
    - Locale-en
    - Locale-ru
  m_SchemaTemplates: []
  m_GroupTemplateObjects:
  - {fileID: 11400000, guid: d136646de5529f94fa58042825e5199b, type: 2}
  m_InitializationObjects: []
  m_CertificateHandlerType:
    m_AssemblyName: 
    m_ClassName: 
  m_ActivePlayerDataBuilderIndex: 3
  m_DataBuilders:
  - {fileID: 11400000, guid: ad2f62ffe8de7f940955a77acf518a4a, type: 2}
  - {fileID: 11400000, guid: 25557117a9ed1c74aa4ec05f106296fb, type: 2}
  - {fileID: 11400000, guid: 4991590fdb0742741a3be024e946974e, type: 2}
  - {fileID: 11400000, guid: 087d96a80667d27429854e237ddbf202, type: 2}
  m_ActiveProfileId: 4d39f26fbc1f8dd43bfe561d15563221
  m_HostingServicesManager:
    m_HostingServiceInfos: []
    m_Settings: {fileID: 11400000}
    m_NextInstanceId: 0
    m_RegisteredServiceTypeRefs: []
    m_GlobalProfileVariablesInfos:
    - key: PrivateIpAddress
      value: 192.168.178.51
