%YAML 1.1
%TAG !u! tag:unity3d.com,2011:
--- !u!114 &11400000
MonoBehaviour:
  m_ObjectHideFlags: 0
  m_CorrespondingSourceObject: {fileID: 0}
  m_PrefabInstance: {fileID: 0}
  m_PrefabAsset: {fileID: 0}
  m_GameObject: {fileID: 0}
  m_Enabled: 1
  m_EditorHideFlags: 0
  m_Script: {fileID: 11500000, guid: 5be51871efa6c3e4eae1703925c8f5ac, type: 3}
  m_Name: StartMenu
  m_EditorClassIdentifier: 
  m_SharedTableData: {fileID: 11400000, guid: 2cc7863aa7b6ce3459fd93e671b8e730, type: 2}
  m_Tables:
  - {fileID: 11400000, guid: 23732dacdbd9f5742a00ddfb26c38d80, type: 2}
  - {fileID: 11400000, guid: 201c72a060a9a624da994d250bb1cf17, type: 2}
  - {fileID: 11400000, guid: 24a920bc78d3bcd4cb7b534a31a6efbe, type: 2}
  m_Extensions: []
  m_Group: String Table
  references:
    version: 2
    RefIds: []
