%YAML 1.1
%TAG !u! tag:unity3d.com,2011:
--- !u!114 &11400000
MonoBehaviour:
  m_ObjectHideFlags: 0
  m_CorrespondingSourceObject: {fileID: 0}
  m_PrefabInstance: {fileID: 0}
  m_PrefabAsset: {fileID: 0}
  m_GameObject: {fileID: 0}
  m_Enabled: 1
  m_EditorHideFlags: 0
  m_Script: {fileID: 11500000, guid: e9620f8c34305754d8cc9a7e49e852d9, type: 3}
  m_Name: Tutorial05_ru
  m_EditorClassIdentifier: 
  m_LocaleId:
    m_Code: ru
  m_SharedData: {fileID: 11400000, guid: 93d8d54e22d60b148a84a5a16c7a0410, type: 2}
  m_Metadata:
    m_Items:
    - rid: 5394417778964824071
  m_TableData:
  - m_Id: 6911339298816
    m_Localized: "\u0423\u0440\u043E\u0432\u0435\u043D\u044C {global.currentLevel}
      (\u0432\u0432\u0435\u0434\u0435\u043D\u0438\u0435)"
    m_Metadata:
      m_Items:
      - rid: 5394417778964824071
  - m_Id: 6990750056448
    m_Localized: "\u0412\u0438\u043A\u0438\u043D\u0433\u0438 \u0432\u0435\u0440\u043D\u0443\u043B\u0438\u0441\u044C
      \u0432 \u043C\u0430\u0433\u0438\u0447\u0435\u0441\u043A\u0438\u0445 \u0434\u043E\u0441\u043F\u0435\u0445\u0430\u0445.
      \n\u041D\u0430\u0434\u043E \u0447\u0442\u043E-\u0442\u043E \u0434\u0435\u043B\u0430\u0442\u044C!"
    m_Metadata:
      m_Items: []
  - m_Id: 13388418416640
    m_Localized: "\u041F\u0440\u043E\u0442\u0438\u0432 \u0432\u0440\u0430\u0433\u043E\u0432
      \u0441 \u0434\u043E\u0441\u043F\u0435\u0445\u0430\u043C\u0438 \u043D\u0443\u0436\u043D\u043E
      \u0443\u0441\u0438\u043B\u0438\u0442\u044C \u0441\u0442\u0440\u0435\u043B\u044B
      <color=\"blue\">\u043C\u0430\u0433\u0438\u0435\u0439</color>."
    m_Metadata:
      m_Items: []
  - m_Id: 14090112892928
    m_Localized: "\u0427\u0442\u043E\u0431\u044B \u043F\u0440\u0438\u043C\u0435\u043D\u0438\u0442\u044C
      \u043C\u0430\u0433\u0438\u044E \u0441\u043D\u0430\u0447\u0430\u043B\u0430 \u0432\u044B\u0431\u0435\u0440\u0438
      \u0444\u043E\u0440\u043C\u0443 \u043F\u0440\u043E\u0442\u0438\u0432\u043D\u0438\u043A\u0430."
    m_Metadata:
      m_Items: []
  - m_Id: 14337794932736
    m_Localized: "\u0422\u0435\u043F\u0435\u0440\u044C \u043D\u0430\u0440\u0438\u0441\u0443\u0439
      \u043D\u0430\u043A\u043B\u043E\u043D\u043D\u0443\u044E \u043B\u0438\u043D\u0438\u044E,
      \u0447\u0442\u043E\u0431\u044B \u0432\u044B\u0431\u0440\u0430\u0442\u044C <color=\"red\">\u0446\u0432\u0435\u0442</color>
      \u0441\u0442\u0440\u0435\u043B\u044B.\n\u0412\u044B\u0431\u0435\u0440\u0438
      \u043F\u0440\u0430\u0432\u0438\u043B\u044C\u043D\u043E\u0435 \u043D\u0430\u043F\u0440\u0430\u0432\u043B\u0435\u043D\u0438\u0435
      \u0434\u043B\u044F \u043B\u0438\u043D\u0438\u0438."
    m_Metadata:
      m_Items: []
  - m_Id: 14780327559168
    m_Localized: "\u0422\u0435\u043F\u0435\u0440\u044C \u043F\u043E\u043F\u0440\u043E\u0431\u0443\u0439
      \u043D\u0430\u043F\u0430\u0441\u0442\u044C \u043D\u0430 \u043F\u0440\u043E\u0442\u0438\u0432\u043D\u0438\u043A\u0430!"
    m_Metadata:
      m_Items: []
  - m_Id: 14929317625856
    m_Localized: "\u0412\u0440\u0430\u0433 \u0431\u0443\u0434\u0435\u0442 \u043E\u0442\u0441\u0442\u0443\u043F\u0430\u0442\u044C,
      \u0435\u0441\u043B\u0438 \u0430\u0442\u0430\u043A\u043E\u0432\u0430\u0442\u044C
      \u0435\u0433\u043E \u0441\u0442\u0440\u0435\u043B\u0430\u043C\u0438 \u0442\u043E\u0433\u043E
      \u0436\u0435 \u0446\u0432\u0435\u0442\u0430."
    m_Metadata:
      m_Items: []
  - m_Id: 15280636723200
    m_Localized: "\u041D\u0430\u0440\u0438\u0441\u0443\u0439 \u043E\u043F\u044F\u0442\u044C
      \u0444\u043E\u0440\u043C\u0443 \u043F\u0440\u043E\u0442\u0438\u0432\u043D\u0438\u043A\u0430."
    m_Metadata:
      m_Items: []
  - m_Id: 15627530829824
    m_Localized: "\u0422\u0435\u043F\u0435\u0440\u044C \u043D\u0430\u0440\u0438\u0441\u0443\u0439
      \u0446\u0432\u0435\u0442\u043D\u0443\u044E \u0440\u0443\u043D\u0443. \u0412\u044B\u0431\u0435\u0440\u0438
      \u043B\u044E\u0431\u043E\u0439 \u0446\u0432\u0435\u0442 \u043A\u0440\u043E\u043C\u0435
      \u0446\u0432\u0435\u0442\u0430 \u043F\u0440\u043E\u0442\u0438\u0432\u043D\u0438\u043A\u0430."
    m_Metadata:
      m_Items: []
  - m_Id: 15843747201024
    m_Localized: "\u0422\u0435\u043F\u0435\u0440\u044C \u0442\u044B \u043C\u043E\u0436\u0435\u0448\u044C
      \u043F\u043E\u0431\u0435\u0434\u0438\u0442\u044C \u043F\u0440\u043E\u0442\u0438\u0432\u043D\u0438\u043A\u0430!
      \u0412\u044B\u043F\u0443\u0441\u043A\u0430\u0439 \u0441\u0432\u043E\u044E \u0441\u0442\u0440\u0435\u043B\u0443!"
    m_Metadata:
      m_Items: []
  - m_Id: 16101218746368
    m_Localized: "\u0421\u043E\u0431\u043B\u044E\u0434\u0430\u0439 \u043F\u0440\u0430\u0432\u0438\u043B\u044C\u043D\u0443\u044E
      \u043F\u043E\u0441\u043B\u0435\u0434\u043E\u0432\u0430\u0442\u0435\u043B\u044C\u043D\u043E\u0441\u0442\u044C:
      \u0441\u043D\u0430\u0447\u0430\u043B\u0430 \u043D\u0430\u0440\u0438\u0441\u0443\u0439
      \u0444\u043E\u0440\u043C\u0443, \u0430 \u043F\u043E\u0442\u043E\u043C \u0432\u044B\u0431\u0438\u0440\u0430\u0439
      \u0446\u0432\u0435\u0442 \u0434\u043B\u044F \u043C\u0430\u0433\u0438\u0447\u0435\u0441\u043A\u043E\u0439
      \u043A\u043E\u043C\u0431\u0438\u043D\u0430\u0446\u0438\u0438 "
    m_Metadata:
      m_Items: []
  - m_Id: 16731270316032
    m_Localized: "\u041F\u043E\u043F\u0440\u043E\u0431\u0443\u0435\u043C \u0435\u0449\u0451
      \u0440\u0430\u0437. \u041D\u0430\u0440\u0438\u0441\u0443\u0439 \u0434\u043B\u044F
      \u043D\u0430\u0447\u0430\u043B\u0430 \u0444\u043E\u0440\u043C\u0443 \u043F\u0440\u043E\u0442\u0438\u0432\u043D\u0438\u043A\u0430."
    m_Metadata:
      m_Items: []
  - m_Id: 17629950279680
    m_Localized: "\u0422\u0435\u043F\u0435\u0440\u044C \u043D\u0430\u0440\u0438\u0441\u0443\u0439
      \u0446\u0432\u0435\u0442\u043D\u0443\u044E \u0440\u0443\u043D\u0443. \u0412\u044B\u0431\u0435\u0440\u0438
      \u043B\u044E\u0431\u043E\u0439 \u0446\u0432\u0435\u0442 \u043A\u0440\u043E\u043C\u0435
      \u0446\u0432\u0435\u0442\u0430 \u043F\u0440\u043E\u0442\u0438\u0432\u043D\u0438\u043A\u0430."
    m_Metadata:
      m_Items: []
  - m_Id: 19689034776576
    m_Localized: "\u041D\u0430\u043F\u0430\u0434\u0430\u0439!"
    m_Metadata:
      m_Items: []
  - m_Id: 19926549823488
    m_Localized: "<u>\u041E\u0434\u043D\u043E\u0439</u> \u043C\u0430\u0433\u0438\u0447\u0435\u0441\u043A\u043E\u0439
      \u0441\u0442\u0440\u0435\u043B\u043E\u0439 \u043C\u043E\u0436\u043D\u043E \u043F\u043E\u0431\u0435\u0434\u0438\u0442\u044C
      \u0441\u0440\u0430\u0437\u0443 \u043D\u0435\u0441\u043A\u043E\u043B\u044C\u043A\u0438\u0445
      \u043F\u0440\u043E\u0442\u0438\u0432\u043D\u0438\u043A\u043E\u0432. \n\u041F\u043E\u043F\u0440\u043E\u0431\u0443\u0439
      \u043F\u043E\u0431\u0435\u0434\u0438\u0442\u044C \u0432\u0441\u0435\u0445 \u0432\u0440\u0430\u0433\u043E\u0432
      \u0441 \u043E\u0434\u043D\u043E\u0439 \u0441\u0442\u0440\u0435\u043B\u043E\u0439."
    m_Metadata:
      m_Items: []
  references:
    version: 2
    RefIds:
    - rid: 5394417778964824071
      type: {class: SmartFormatTag, ns: UnityEngine.Localization.Metadata, asm: Unity.Localization}
      data:
        m_Entries: 0080ec2b49060000
