%YAML 1.1
%TAG !u! tag:unity3d.com,2011:
--- !u!114 &11400000
MonoBehaviour:
  m_ObjectHideFlags: 0
  m_CorrespondingSourceObject: {fileID: 0}
  m_PrefabInstance: {fileID: 0}
  m_PrefabAsset: {fileID: 0}
  m_GameObject: {fileID: 0}
  m_Enabled: 1
  m_EditorHideFlags: 0
  m_Script: {fileID: 11500000, guid: e9620f8c34305754d8cc9a7e49e852d9, type: 3}
  m_Name: BaseGame_en
  m_EditorClassIdentifier: 
  m_LocaleId:
    m_Code: en
  m_SharedData: {fileID: 11400000, guid: 2718c5e09fdd48742beb6d9d35889c59, type: 2}
  m_Metadata:
    m_Items:
    - rid: 3989601361369497606
  m_TableData:
  - m_Id: 1402629253791744
    m_Localized: Pause
    m_Metadata:
      m_Items: []
  - m_Id: 1402829527613440
    m_Localized: Skip level
    m_Metadata:
      m_Items: []
  - m_Id: 1403046654148608
    m_Localized: Main menu
    m_Metadata:
      m_Items: []
  - m_Id: 1403485017636864
    m_Localized: Continue
    m_Metadata:
      m_Items: []
  - m_Id: 1418088783413248
    m_Localized: Game over
    m_Metadata:
      m_Items: []
  - m_Id: 1418218567761920
    m_Localized: Try again
    m_Metadata:
      m_Items: []
  - m_Id: 1418680717148160
    m_Localized: Gestures
    m_Metadata:
      m_Items: []
  - m_Id: 1418823944241152
    m_Localized: Enemy form
    m_Metadata:
      m_Items: []
  - m_Id: 1419062235234304
    m_Localized: Arrow color
    m_Metadata:
      m_Items: []
  - m_Id: 1419195454717952
    m_Localized: Enemy color is resistance
    m_Metadata:
      m_Items: []
  - m_Id: 1419421854859264
    m_Localized: resist
    m_Metadata:
      m_Items: []
  - m_Id: 1419472031318016
    m_Localized: form
    m_Metadata:
      m_Items: []
  - m_Id: 1419495259373568
    m_Localized: strong
    m_Metadata:
      m_Items: []
  - m_Id: 1419516914565120
    m_Localized: shoot
    m_Metadata:
      m_Items: []
  - m_Id: 1420992047087616
    m_Localized: Level finished
    m_Metadata:
      m_Items: []
  - m_Id: 1421299816726528
    m_Localized: Repeat level
    m_Metadata:
      m_Items: []
  - m_Id: 1421396017283072
    m_Localized: Next level
    m_Metadata:
      m_Items: []
  - m_Id: 1763203968270336
    m_Localized: Level {global.currentLevel}
    m_Metadata:
      m_Items:
      - rid: 3989601361369497606
  - m_Id: 1788062551113728
    m_Localized: Go!
    m_Metadata:
      m_Items: []
  references:
    version: 2
    RefIds:
    - rid: 3989601361369497606
      type: {class: SmartFormatTag, ns: UnityEngine.Localization.Metadata, asm: Unity.Localization}
      data:
        m_Entries: 000032ea9f430600
