%YAML 1.1
%TAG !u! tag:unity3d.com,2011:
--- !u!114 &11400000
MonoBehaviour:
  m_ObjectHideFlags: 0
  m_CorrespondingSourceObject: {fileID: 0}
  m_PrefabInstance: {fileID: 0}
  m_PrefabAsset: {fileID: 0}
  m_GameObject: {fileID: 0}
  m_Enabled: 1
  m_EditorHideFlags: 0
  m_Script: {fileID: 11500000, guid: e9620f8c34305754d8cc9a7e49e852d9, type: 3}
  m_Name: BaseGame_de
  m_EditorClassIdentifier: 
  m_LocaleId:
    m_Code: de
  m_SharedData: {fileID: 11400000, guid: 2718c5e09fdd48742beb6d9d35889c59, type: 2}
  m_Metadata:
    m_Items:
    - rid: 3989601361369497605
  m_TableData:
  - m_Id: 1402629253791744
    m_Localized: Pause
    m_Metadata:
      m_Items: []
  - m_Id: 1402829527613440
    m_Localized: "Level \xFCberspringen"
    m_Metadata:
      m_Items: []
  - m_Id: 1403046654148608
    m_Localized: "Hauptmen\xFC"
    m_Metadata:
      m_Items: []
  - m_Id: 1403485017636864
    m_Localized: Weiter
    m_Metadata:
      m_Items: []
  - m_Id: 1418088783413248
    m_Localized: Spiel verloren
    m_Metadata:
      m_Items: []
  - m_Id: 1418218567761920
    m_Localized: Erneut versuchen
    m_Metadata:
      m_Items: []
  - m_Id: 1418680717148160
    m_Localized: Gesten
    m_Metadata:
      m_Items: []
  - m_Id: 1418823944241152
    m_Localized: Gegnerform
    m_Metadata:
      m_Items: []
  - m_Id: 1419062235234304
    m_Localized: Pfeilfarbe
    m_Metadata:
      m_Items: []
  - m_Id: 1419195454717952
    m_Localized: "Gegnerfarbe ist Immunit\xE4t"
    m_Metadata:
      m_Items: []
  - m_Id: 1419421854859264
    m_Localized: immun
    m_Metadata:
      m_Items: []
  - m_Id: 1419472031318016
    m_Localized: Form
    m_Metadata:
      m_Items: []
  - m_Id: 1419495259373568
    m_Localized: stark
    m_Metadata:
      m_Items: []
  - m_Id: 1419516914565120
    m_Localized: "schie\xDFen"
    m_Metadata:
      m_Items: []
  - m_Id: 1420992047087616
    m_Localized: Level fertig
    m_Metadata:
      m_Items: []
  - m_Id: 1421299816726528
    m_Localized: Level wiederholen
    m_Metadata:
      m_Items: []
  - m_Id: 1421396017283072
    m_Localized: "N\xE4chstes Level"
    m_Metadata:
      m_Items: []
  - m_Id: 1763203968270336
    m_Localized: Level {global.currentLevel}
    m_Metadata:
      m_Items:
      - rid: 3989601361369497605
  - m_Id: 1788062551113728
    m_Localized: Los!
    m_Metadata:
      m_Items: []
  references:
    version: 2
    RefIds:
    - rid: 3989601361369497605
      type: {class: SmartFormatTag, ns: UnityEngine.Localization.Metadata, asm: Unity.Localization}
      data:
        m_Entries: 000032ea9f430600
