{
"skeleton": { "hash": "LU0SKzjGxdOiPNTLivv76H5/wc4", "spine": "3.7.94", "width": 390.6, "height": 897.33 },
"bones": [
	{ "name": "root" },
	{ "name": "default", "parent": "root", "x": 1.19, "y": 6.1 },
	{ "name": "damaged1", "parent": "root", "x": 47.02, "y": 3.4 },
	{ "name": "damaged2", "parent": "root", "x": 79.37, "y": 3.4 },
	{ "name": "deathtransition", "parent": "root", "x": 114.42, "y": 3.4 },
	{ "name": "deadloop", "parent": "root", "x": 173.73, "y": 0.71 },
	{ "name": "deathtransition_middle", "parent": "deathtransition", "x": -128.08, "y": 465.06 },
	{ "name": "deathtransition_stone1", "parent": "deathtransition", "length": 40.79, "rotation": 90, "x": -215.41, "y": 537.08 },
	{ "name": "deathtransition_stone2", "parent": "deathtransition", "length": 44.98, "rotation": 90, "x": -85.7, "y": 544.4 },
	{ "name": "deathtransition_stone3", "parent": "deathtransition", "length": 62.76, "rotation": 90, "x": -260.39, "y": 403.19 },
	{ "name": "deathtransition_stone4", "parent": "deathtransition", "length": 53.44, "rotation": 93.37, "x": -136.96, "y": 425.16 },
	{ "name": "deathtransition_stone5", "parent": "deathtransition", "length": 32.43, "rotation": 90, "x": -104.53, "y": 338.34 },
	{ "name": "deathtransition_stone6", "parent": "deathtransition", "length": 65.97, "rotation": 87.27, "x": -4.12, "y": 387.5 },
	{ "name": "deathtransition_stone7", "parent": "deathtransition", "length": 49.16, "rotation": 90, "x": 20.99, "y": 528.71 },
	{ "name": "damaged2loop", "parent": "root", "length": 94.22, "rotation": 91.79, "x": 2.09, "y": 43.75 }
],
"slots": [
	{ "name": "deadloop", "bone": "deadloop", "attachment": "deadloop" },
	{ "name": "damaged2", "bone": "damaged2", "attachment": "damaged2" },
	{ "name": "damaged1", "bone": "damaged1", "attachment": "damaged1" },
	{ "name": "default", "bone": "default", "attachment": "default" },
	{ "name": "deathtransition_middlebg", "bone": "deathtransition_middle", "attachment": "deathtransition_middlebg" },
	{ "name": "stone1", "bone": "deathtransition_stone1", "attachment": "stone1" },
	{ "name": "stone2", "bone": "deathtransition_stone2", "attachment": "stone2" },
	{ "name": "stone3", "bone": "deathtransition_stone3", "attachment": "stone3" },
	{ "name": "stone4", "bone": "deathtransition_stone4", "attachment": "stone4" },
	{ "name": "stone5", "bone": "deathtransition_stone5", "attachment": "stone5" },
	{ "name": "stone6", "bone": "deathtransition_stone6", "attachment": "stone6" },
	{ "name": "stone7", "bone": "deathtransition_stone7", "attachment": "stone7" },
	{ "name": "deathtransition", "bone": "deathtransition", "attachment": "deathtransition" },
	{ "name": "damaged2_loop", "bone": "damaged2loop", "attachment": "damaged2_loop" }
],
"skins": {
	"default": {
		"damaged1": {
			"damaged1": { "x": -47.02, "y": 443.6, "width": 385, "height": 894 }
		},
		"damaged2": {
			"damaged2": { "x": -79.37, "y": 443.6, "width": 385, "height": 894 }
		},
		"damaged2_loop": {
			"damaged2_loop": { "x": 399.79, "y": -10.41, "rotation": -91.79, "width": 385, "height": 894 }
		},
		"deadloop": {
			"deadloop": { "x": -173.73, "y": 446.29, "width": 385, "height": 894 }
		},
		"deathtransition": {
			"deathtransition": { "x": -114.42, "y": 443.6, "width": 385, "height": 894 }
		},
		"deathtransition_middlebg": {
			"deathtransition_middlebg": {
				"type": "mesh",
				"uvs": [ 0, 0.37282, 0, 0.49297, 0, 0.60874, 0, 0.66588, 0.14867, 0.66295, 0.15548, 0.6058, 0.36303, 0.60874, 0.36644, 0.66588, 0.66246, 0.66588, 0.66927, 0.60434, 0.87342, 0.60727, 0.88363, 0.66442, 1, 0.66588, 1, 0.60434, 1, 0.5047, 1, 0.38161, 1, 0.29662, 0.8428, 0.29662, 0.63184, 0.29662, 0.33581, 0.29662, 0.16228, 0.29662, 0, 0.29662, 0.14527, 0.49298, 0.15207, 0.37282, 0.35623, 0.49737, 0.33241, 0.37428, 0.63864, 0.5003, 0.61823, 0.38161, 0.88363, 0.5003, 0.86662, 0.38161 ],
				"triangles": [ 23, 0, 21, 20, 23, 21, 25, 20, 19, 23, 20, 25, 27, 19, 18, 25, 19, 27, 29, 17, 16, 29, 16, 15, 22, 1, 0, 23, 22, 0, 24, 25, 27, 27, 17, 29, 17, 27, 18, 26, 27, 29, 24, 27, 26, 28, 29, 15, 26, 29, 28, 28, 15, 14, 9, 26, 28, 28, 14, 13, 22, 25, 24, 25, 22, 23, 5, 22, 24, 10, 9, 28, 10, 28, 13, 2, 1, 22, 2, 22, 5, 6, 24, 26, 6, 26, 9, 5, 24, 6, 4, 2, 5, 11, 10, 13, 3, 2, 4, 8, 7, 6, 9, 8, 6, 11, 13, 12 ],
				"vertices": [ -178.84, 92.23, -178.84, -15.19, -178.84, -118.68, -178.84, -169.77, -121.6, -167.15, -118.98, -116.06, -39.07, -118.68, -37.76, -169.77, 76.21, -169.77, 78.83, -114.75, 157.43, -117.37, 161.36, -168.46, 206.16, -169.77, 206.16, -114.75, 206.16, -25.67, 206.16, 84.37, 206.16, 160.35, 145.64, 160.35, 64.42, 160.35, -49.55, 160.35, -116.36, 160.35, -178.84, 160.35, -122.91, -15.19, -120.29, 92.23, -41.69, -19.12, -50.86, 90.92, 67.04, -21.74, 59.18, 84.37, 161.36, -21.74, 154.81, 84.37 ],
				"hull": 22
			}
		},
		"default": {
			"default": { "x": -1.19, "y": 440.9, "width": 385, "height": 894 }
		},
		"stone1": {
			"stone1": { "x": 23.81, "y": 3.06, "rotation": -90, "width": 160, "height": 113 }
		},
		"stone2": {
			"stone2": { "x": 19.87, "y": 1.05, "rotation": -90, "width": 114, "height": 103 }
		},
		"stone3": {
			"stone3": { "x": 26.15, "rotation": -90, "width": 96, "height": 151 }
		},
		"stone4": {
			"stone4": { "x": 21.19, "y": 3.99, "rotation": -93.37, "width": 161, "height": 132 }
		},
		"stone5": {
			"stone5": { "x": 13.6, "y": 7.32, "rotation": -90, "width": 92, "height": 79 }
		},
		"stone6": {
			"stone6": { "x": 35.92, "y": -6.67, "rotation": -87.27, "width": 151, "height": 164 }
		},
		"stone7": {
			"stone7": { "x": 25.1, "y": -5.23, "rotation": -90, "width": 112, "height": 125 }
		}
	}
},
"animations": {
	"damaged1": {
		"slots": {
			"damaged2": {
				"attachment": [
					{ "time": 0, "name": null }
				]
			},
			"damaged2_loop": {
				"attachment": [
					{ "time": 0, "name": null }
				]
			},
			"deadloop": {
				"attachment": [
					{ "time": 0, "name": null }
				]
			},
			"deathtransition": {
				"attachment": [
					{ "time": 0, "name": null }
				]
			},
			"deathtransition_middlebg": {
				"attachment": [
					{ "time": 0, "name": null }
				]
			},
			"default": {
				"attachment": [
					{ "time": 0, "name": null }
				]
			},
			"stone1": {
				"attachment": [
					{ "time": 0, "name": null }
				]
			},
			"stone2": {
				"attachment": [
					{ "time": 0, "name": null }
				]
			},
			"stone3": {
				"attachment": [
					{ "time": 0, "name": null }
				]
			},
			"stone4": {
				"attachment": [
					{ "time": 0, "name": null }
				]
			},
			"stone5": {
				"attachment": [
					{ "time": 0, "name": null }
				]
			},
			"stone6": {
				"attachment": [
					{ "time": 0, "name": null }
				]
			},
			"stone7": {
				"attachment": [
					{ "time": 0, "name": null }
				]
			}
		}
	},
	"damaged2": {
		"slots": {
			"damaged1": {
				"attachment": [
					{ "time": 0, "name": null }
				]
			},
			"damaged2": {
				"attachment": [
					{ "time": 0, "name": "damaged2" }
				]
			},
			"damaged2_loop": {
				"attachment": [
					{ "time": 0, "name": null }
				]
			},
			"deadloop": {
				"attachment": [
					{ "time": 0, "name": null }
				]
			},
			"deathtransition": {
				"attachment": [
					{ "time": 0, "name": null }
				]
			},
			"deathtransition_middlebg": {
				"attachment": [
					{ "time": 0, "name": null }
				]
			},
			"default": {
				"attachment": [
					{ "time": 0, "name": null }
				]
			},
			"stone1": {
				"attachment": [
					{ "time": 0, "name": null }
				]
			},
			"stone2": {
				"attachment": [
					{ "time": 0, "name": null }
				]
			},
			"stone3": {
				"attachment": [
					{ "time": 0, "name": null }
				]
			},
			"stone4": {
				"attachment": [
					{ "time": 0, "name": null }
				]
			},
			"stone5": {
				"attachment": [
					{ "time": 0, "name": null }
				]
			},
			"stone6": {
				"attachment": [
					{ "time": 0, "name": null }
				]
			},
			"stone7": {
				"attachment": [
					{ "time": 0, "name": null }
				]
			}
		}
	},
	"deadloop": {
		"slots": {
			"damaged1": {
				"attachment": [
					{ "time": 0, "name": null }
				]
			},
			"damaged2": {
				"attachment": [
					{ "time": 0, "name": null }
				]
			},
			"damaged2_loop": {
				"attachment": [
					{ "time": 0, "name": null }
				]
			},
			"deathtransition": {
				"attachment": [
					{ "time": 0, "name": null }
				]
			},
			"deathtransition_middlebg": {
				"attachment": [
					{ "time": 0, "name": null }
				]
			},
			"default": {
				"attachment": [
					{ "time": 0, "name": null }
				]
			},
			"stone1": {
				"attachment": [
					{ "time": 0, "name": null }
				]
			},
			"stone2": {
				"attachment": [
					{ "time": 0, "name": null }
				]
			},
			"stone3": {
				"attachment": [
					{ "time": 0, "name": null }
				]
			},
			"stone4": {
				"attachment": [
					{ "time": 0, "name": null }
				]
			},
			"stone5": {
				"attachment": [
					{ "time": 0, "name": null }
				]
			},
			"stone6": {
				"attachment": [
					{ "time": 0, "name": null }
				]
			},
			"stone7": {
				"attachment": [
					{ "time": 0, "name": null }
				]
			}
		}
	},
	"deathtransition": {
		"slots": {
			"damaged1": {
				"attachment": [
					{ "time": 0, "name": null },
					{ "time": 0.1333, "name": null },
					{ "time": 0.2333, "name": null },
					{ "time": 0.3333, "name": null }
				]
			},
			"damaged2": {
				"attachment": [
					{ "time": 0, "name": null },
					{ "time": 0.1333, "name": null },
					{ "time": 0.2333, "name": null },
					{ "time": 0.3333, "name": null }
				]
			},
			"deadloop": {
				"attachment": [
					{ "time": 0, "name": null },
					{ "time": 0.1333, "name": null },
					{ "time": 0.2333, "name": null },
					{ "time": 0.3333, "name": null }
				]
			},
			"default": {
				"attachment": [
					{ "time": 0, "name": null },
					{ "time": 0.1333, "name": null },
					{ "time": 0.2333, "name": null },
					{ "time": 0.3333, "name": null }
				]
			}
		},
		"bones": {
			"deathtransition_middle": {
				"rotate": [
					{ "time": 0, "angle": 0, "curve": "stepped" },
					{ "time": 0.1333, "angle": 0, "curve": "stepped" },
					{ "time": 0.2333, "angle": 0, "curve": "stepped" },
					{ "time": 0.3333, "angle": 0, "curve": "stepped" },
					{ "time": 0.5, "angle": 0, "curve": "stepped" },
					{ "time": 0.7667, "angle": 0 }
				],
				"translate": [
					{ "time": 0, "x": 0, "y": 0 },
					{ "time": 0.0333, "x": 0, "y": -6.55 },
					{ "time": 0.0667, "x": 3.27, "y": -4.36 },
					{ "time": 0.1, "x": 4.91, "y": -2.18 },
					{ "time": 0.1333, "x": 0, "y": 3.27 },
					{ "time": 0.1667, "x": 0, "y": -4.36 },
					{ "time": 0.2333, "x": 0, "y": 0, "curve": "stepped" },
					{ "time": 0.3333, "x": 0, "y": 0 },
					{ "time": 0.5, "x": 0, "y": -140.76 },
					{ "time": 0.7667, "x": 0, "y": -284.77 }
				],
				"scale": [
					{ "time": 0, "x": 1, "y": 1, "curve": "stepped" },
					{ "time": 0.1333, "x": 1, "y": 1, "curve": "stepped" },
					{ "time": 0.2333, "x": 1, "y": 1, "curve": "stepped" },
					{ "time": 0.3333, "x": 1, "y": 1, "curve": "stepped" },
					{ "time": 0.5, "x": 1, "y": 1, "curve": "stepped" },
					{ "time": 0.7667, "x": 1, "y": 1 }
				]
			},
			"deathtransition_stone1": {
				"rotate": [
					{ "time": 0, "angle": 0, "curve": "stepped" },
					{ "time": 0.0333, "angle": 0, "curve": "stepped" },
					{ "time": 0.0667, "angle": 0, "curve": "stepped" },
					{ "time": 0.1, "angle": 0, "curve": "stepped" },
					{ "time": 0.1333, "angle": 0, "curve": "stepped" },
					{ "time": 0.1667, "angle": 0, "curve": "stepped" },
					{ "time": 0.2, "angle": 0, "curve": "stepped" },
					{ "time": 0.2333, "angle": 0, "curve": "stepped" },
					{ "time": 0.2667, "angle": 0, "curve": "stepped" },
					{ "time": 0.3, "angle": 0 },
					{ "time": 0.5, "angle": 42.66 },
					{ "time": 0.7667, "angle": 168.53 }
				],
				"translate": [
					{ "time": 0, "x": 0, "y": 0 },
					{ "time": 0.0333, "x": -9.82, "y": 0 },
					{ "time": 0.0667, "x": 0, "y": 0 },
					{ "time": 0.1, "x": 3.27, "y": -6.55 },
					{ "time": 0.1333, "x": -9.82, "y": 0 },
					{ "time": 0.1667, "x": 0, "y": 0 },
					{ "time": 0.2, "x": 3.27, "y": -6.55 },
					{ "time": 0.2333, "x": -9.82, "y": 0 },
					{ "time": 0.2667, "x": 0, "y": 0 },
					{ "time": 0.3, "x": 3.27, "y": -6.55 },
					{ "time": 0.5, "x": 6.4, "y": 271.82 },
					{ "time": 0.7667, "x": 12.94, "y": -363.14 }
				],
				"scale": [
					{ "time": 0, "x": 1, "y": 1, "curve": "stepped" },
					{ "time": 0.0333, "x": 1, "y": 1, "curve": "stepped" },
					{ "time": 0.0667, "x": 1, "y": 1, "curve": "stepped" },
					{ "time": 0.1, "x": 1, "y": 1, "curve": "stepped" },
					{ "time": 0.1333, "x": 1, "y": 1, "curve": "stepped" },
					{ "time": 0.1667, "x": 1, "y": 1, "curve": "stepped" },
					{ "time": 0.2, "x": 1, "y": 1, "curve": "stepped" },
					{ "time": 0.2333, "x": 1, "y": 1, "curve": "stepped" },
					{ "time": 0.2667, "x": 1, "y": 1, "curve": "stepped" },
					{ "time": 0.3, "x": 1, "y": 1, "curve": "stepped" },
					{ "time": 0.5, "x": 1, "y": 1, "curve": "stepped" },
					{ "time": 0.7667, "x": 1, "y": 1 }
				]
			},
			"deathtransition_stone2": {
				"rotate": [
					{ "time": 0, "angle": 0, "curve": "stepped" },
					{ "time": 0.1333, "angle": 0, "curve": "stepped" },
					{ "time": 0.2, "angle": 0, "curve": "stepped" },
					{ "time": 0.2667, "angle": 0 },
					{ "time": 0.5, "angle": -29.52 },
					{ "time": 0.7667, "angle": 152.75 }
				],
				"translate": [
					{ "time": 0, "x": 0, "y": 0 },
					{ "time": 0.1333, "x": -6.55, "y": 0 },
					{ "time": 0.2, "x": 0, "y": 0 },
					{ "time": 0.2667, "x": 19.64, "y": -9.82 },
					{ "time": 0.5, "x": -12.8, "y": 262.23 },
					{ "time": 0.7667, "x": -25.89, "y": -362.92 }
				],
				"scale": [
					{ "time": 0, "x": 1, "y": 1, "curve": "stepped" },
					{ "time": 0.1333, "x": 1, "y": 1, "curve": "stepped" },
					{ "time": 0.2, "x": 1, "y": 1, "curve": "stepped" },
					{ "time": 0.2667, "x": 1, "y": 1 },
					{ "time": 0.5, "x": 0.913, "y": 0.913 },
					{ "time": 0.7667, "x": 0.557, "y": 0.557 }
				]
			},
			"deathtransition_stone3": {
				"rotate": [
					{ "time": 0, "angle": 0, "curve": "stepped" },
					{ "time": 0.1333, "angle": 0, "curve": "stepped" },
					{ "time": 0.2, "angle": 0, "curve": "stepped" },
					{ "time": 0.2667, "angle": 0 },
					{ "time": 0.5, "angle": 51.1 },
					{ "time": 0.7667, "angle": -175.15 }
				],
				"translate": [
					{ "time": 0, "x": 0, "y": 0 },
					{ "time": 0.1333, "x": -9.82, "y": 0 },
					{ "time": 0.2, "x": 0, "y": 0 },
					{ "time": 0.2667, "x": 29.46, "y": 0 },
					{ "time": 0.5, "x": -25.59, "y": 291.02 },
					{ "time": 0.7667, "x": -2.68, "y": -271.94 }
				],
				"scale": [
					{ "time": 0, "x": 1, "y": 1, "curve": "stepped" },
					{ "time": 0.1333, "x": 1, "y": 1, "curve": "stepped" },
					{ "time": 0.2, "x": 1, "y": 1, "curve": "stepped" },
					{ "time": 0.2667, "x": 1, "y": 1 },
					{ "time": 0.5, "x": 0.798, "y": 0.798 },
					{ "time": 0.7667, "x": 0.436, "y": 0.798 }
				]
			},
			"deathtransition_stone4": {
				"rotate": [
					{ "time": 0, "angle": 0, "curve": "stepped" },
					{ "time": 0.1333, "angle": 0, "curve": "stepped" },
					{ "time": 0.2, "angle": 0, "curve": "stepped" },
					{ "time": 0.2667, "angle": 0 },
					{ "time": 0.5, "angle": 35.99 },
					{ "time": 0.7667, "angle": 160.83 }
				],
				"translate": [
					{ "time": 0, "x": 0, "y": 0 },
					{ "time": 0.1333, "x": -13.09, "y": 0 },
					{ "time": 0.2, "x": 0, "y": 0 },
					{ "time": 0.2667, "x": 22.91, "y": -13.09 },
					{ "time": 0.5, "x": 47.99, "y": 291.02 },
					{ "time": 0.7667, "x": 44.71, "y": -186.84 }
				],
				"scale": [
					{ "time": 0, "x": 1, "y": 1, "curve": "stepped" },
					{ "time": 0.1333, "x": 1, "y": 1, "curve": "stepped" },
					{ "time": 0.2, "x": 1, "y": 1, "curve": "stepped" },
					{ "time": 0.2667, "x": 1, "y": 1, "curve": "stepped" },
					{ "time": 0.5, "x": 1, "y": 1 },
					{ "time": 0.7667, "x": 0.926, "y": 0.926 }
				]
			},
			"deathtransition_stone5": {
				"rotate": [
					{ "time": 0, "angle": 0, "curve": "stepped" },
					{ "time": 0.1333, "angle": 0, "curve": "stepped" },
					{ "time": 0.2, "angle": 0, "curve": "stepped" },
					{ "time": 0.2667, "angle": 0, "curve": "stepped" },
					{ "time": 0.5, "angle": 0, "curve": "stepped" },
					{ "time": 0.7667, "angle": 0 }
				],
				"translate": [
					{ "time": 0, "x": 0, "y": 0 },
					{ "time": 0.1333, "x": -26.18, "y": 0 },
					{ "time": 0.2, "x": 0, "y": 0 },
					{ "time": 0.2667, "x": 3.27, "y": -16.36 },
					{ "time": 0.5, "x": 19.19, "y": 252.63 },
					{ "time": 0.7667, "x": 2.83, "y": -146.68 }
				],
				"scale": [
					{ "time": 0, "x": 1, "y": 1, "curve": "stepped" },
					{ "time": 0.1333, "x": 1, "y": 1, "curve": "stepped" },
					{ "time": 0.2, "x": 1, "y": 1, "curve": "stepped" },
					{ "time": 0.2667, "x": 1, "y": 1, "curve": "stepped" },
					{ "time": 0.5, "x": 1, "y": 1, "curve": "stepped" },
					{ "time": 0.7667, "x": 1, "y": 1 }
				]
			},
			"deathtransition_stone6": {
				"rotate": [
					{ "time": 0, "angle": 0, "curve": "stepped" },
					{ "time": 0.1333, "angle": 0, "curve": "stepped" },
					{ "time": 0.2, "angle": 0, "curve": "stepped" },
					{ "time": 0.2667, "angle": 0 },
					{ "time": 0.5, "angle": -25.47 },
					{ "time": 0.7667, "angle": 173.91 }
				],
				"translate": [
					{ "time": 0, "x": 0, "y": 0 },
					{ "time": 0.1333, "x": 3.27, "y": 0 },
					{ "time": 0.2, "x": 0, "y": 0 },
					{ "time": 0.2667, "x": 19.64, "y": 0 },
					{ "time": 0.5, "x": 0, "y": 278.22 },
					{ "time": 0.7667, "x": -3.27, "y": -81.81 }
				],
				"scale": [
					{ "time": 0, "x": 1, "y": 1, "curve": "stepped" },
					{ "time": 0.1333, "x": 1, "y": 1, "curve": "stepped" },
					{ "time": 0.2, "x": 1, "y": 1, "curve": "stepped" },
					{ "time": 0.2667, "x": 1, "y": 1, "curve": "stepped" },
					{ "time": 0.5, "x": 1, "y": 1 },
					{ "time": 0.7667, "x": 0.707, "y": 0.707 }
				]
			},
			"deathtransition_stone7": {
				"rotate": [
					{ "time": 0, "angle": 0, "curve": "stepped" },
					{ "time": 0.1333, "angle": 0, "curve": "stepped" },
					{ "time": 0.2, "angle": 0, "curve": "stepped" },
					{ "time": 0.2667, "angle": 0 },
					{ "time": 0.5, "angle": 52.98 },
					{ "time": 0.7667, "angle": 165.22 }
				],
				"translate": [
					{ "time": 0, "x": -6.32, "y": 0 },
					{ "time": 0.1333, "x": -9.82, "y": 0 },
					{ "time": 0.2, "x": 0, "y": 0 },
					{ "time": 0.2667, "x": 9.82, "y": 0 },
					{ "time": 0.5, "x": 16, "y": 339 },
					{ "time": 0.7667, "x": 6.18, "y": -276.32 }
				],
				"scale": [
					{ "time": 0, "x": 1, "y": 1, "curve": "stepped" },
					{ "time": 0.1333, "x": 1, "y": 1, "curve": "stepped" },
					{ "time": 0.2, "x": 1, "y": 1, "curve": "stepped" },
					{ "time": 0.2667, "x": 1, "y": 1 },
					{ "time": 0.5, "x": 0.58, "y": 0.58 },
					{ "time": 0.7667, "x": 0.181, "y": 0.181 }
				]
			},
			"root": {
				"translate": [
					{ "time": 0, "x": 0, "y": 0, "curve": "stepped" },
					{ "time": 0.3333, "x": 0, "y": 0, "curve": "stepped" },
					{ "time": 0.5, "x": 0, "y": 0 }
				]
			},
			"damaged2loop": {
				"translate": [
					{ "time": 0, "x": 0, "y": 0 },
					{ "time": 0.0667, "x": 5.89, "y": -30.02 },
					{ "time": 0.1333, "x": 1.47, "y": -60.04 },
					{ "time": 0.2, "x": 6.87, "y": -90.06 },
					{ "time": 0.3333, "x": 0, "y": -150.09 },
					{ "time": 0.5, "x": 3.23, "y": -311.96 },
					{ "time": 0.5667, "x": -0.81, "y": -381.12 },
					{ "time": 0.6333, "x": 5.93, "y": -450.28 },
					{ "time": 0.7, "x": -3.5, "y": -519.44 },
					{ "time": 0.7667, "x": 0, "y": -588.6 }
				]
			}
		},
		"deform": {
			"default": {
				"deathtransition_middlebg": {
					"deathtransition_middlebg": [
						{
							"time": 0,
							"offset": 32,
							"vertices": [ 0.09602 ]
						},
						{
							"time": 0.1333,
							"offset": 32,
							"vertices": [ 3.25601 ],
							"curve": "stepped"
						},
						{
							"time": 0.2333,
							"offset": 32,
							"vertices": [ 3.25601 ],
							"curve": "stepped"
						},
						{
							"time": 0.3333,
							"offset": 32,
							"vertices": [ 3.25601 ]
						},
						{
							"time": 0.5,
							"offset": 32,
							"vertices": [ -43.23001, -61.56995, -13.09999, -30.13004, -7.85999, -61.56995, 2.62, -26.19998, 2.62, -30.13004, 40.60995, -70.73993, 0, 0, 30.12997, -39.30002, 0, 0, -14.41005, 0, 0, 0, -22.27, -45.85001 ]
						},
						{
							"time": 0.6,
							"offset": 32,
							"vertices": [ -43.23001, -61.56995, -19.64603, -95.59009, 24.86999, -104.11893, 25.53099, -111.29794, -0.65304, -131.59296, 40.60995, -70.73993, 0, 0, 30.12997, -39.30002, 0, 0, -14.41005, 0, 0, 0, -22.27, -45.85001 ]
						},
						{
							"time": 0.7667,
							"offset": 32,
							"vertices": [ -43.23001, -61.56995, -13.09999, -30.13004, -7.85999, -61.56995, 2.62, -26.19998, 2.62, -30.13004, 40.60995, -70.73993, 0, 0, 30.12997, -39.30002, 0, 0, -14.41005, 0, 0, 0, -22.27, -45.85001 ]
						}
					]
				}
			}
		},
		"drawOrder": [
			{
				"time": 0,
				"offsets": [
					{ "slot": "damaged2_loop", "offset": -13 }
				]
			}
		]
	},
	"default": {
		"slots": {
			"damaged1": {
				"attachment": [
					{ "time": 0, "name": null }
				]
			},
			"damaged2": {
				"attachment": [
					{ "time": 0, "name": null }
				]
			},
			"damaged2_loop": {
				"attachment": [
					{ "time": 0, "name": null }
				]
			},
			"deadloop": {
				"attachment": [
					{ "time": 0, "name": null }
				]
			},
			"deathtransition": {
				"attachment": [
					{ "time": 0, "name": null }
				]
			},
			"deathtransition_middlebg": {
				"attachment": [
					{ "time": 0, "name": null }
				]
			},
			"default": {
				"attachment": [
					{ "time": 0, "name": "default" }
				]
			},
			"stone1": {
				"attachment": [
					{ "time": 0, "name": null }
				]
			},
			"stone2": {
				"attachment": [
					{ "time": 0, "name": null }
				]
			},
			"stone3": {
				"attachment": [
					{ "time": 0, "name": null }
				]
			},
			"stone4": {
				"attachment": [
					{ "time": 0, "name": null }
				]
			},
			"stone5": {
				"attachment": [
					{ "time": 0, "name": null }
				]
			},
			"stone6": {
				"attachment": [
					{ "time": 0, "name": null }
				]
			},
			"stone7": {
				"attachment": [
					{ "time": 0, "name": null }
				]
			}
		}
	}
}
}